# Blender MTL File: 'None'
# Material Count: 1

newmtl fighter1
Ns 900.000000
Ka 1.000000 1.000000 1.000000
Kd 0.498039 0.498039 0.498039
Ks 1.000000 1.000000 1.000000
Ke 0.000000 0.000000 0.000000
Ni 1.450000
d 1.000000
illum 3
